\relax 
\providecommand\hyper@newdestlabel[2]{}
\providecommand\HyperFirstAtBeginDocument{\AtBeginDocument}
\HyperFirstAtBeginDocument{\ifx\hyper@anchor\@undefined
\global\let\oldcontentsline\contentsline
\gdef\contentsline#1#2#3#4{\oldcontentsline{#1}{#2}{#3}}
\global\let\oldnewlabel\newlabel
\gdef\newlabel#1#2{\newlabelxx{#1}#2}
\gdef\newlabelxx#1#2#3#4#5#6{\oldnewlabel{#1}{{#2}{#3}}}
\AtEndDocument{\ifx\hyper@anchor\@undefined
\let\contentsline\oldcontentsline
\let\newlabel\oldnewlabel
\fi}
\fi}
\global\let\hyper@last\relax 
\gdef\HyperFirstAtBeginDocument#1{#1}
\providecommand\HyField@AuxAddToFields[1]{}
\providecommand\HyField@AuxAddToCoFields[2]{}
\@writefile{toc}{\contentsline {section}{\numberline {1}Introduction- Motivation}{1}{section.1}\protected@file@percent }
\@writefile{toc}{\contentsline {section}{\numberline {2}Problem Definition (including data description)}{1}{section.2}\protected@file@percent }
\@writefile{toc}{\contentsline {section}{\numberline {3}Approach Followed/Methods Used/Experiments.}{2}{section.3}\protected@file@percent }
\@writefile{lof}{\contentsline {figure}{\numberline {1}{\ignorespaces The pipeline displayed is the initial plan for the project, which is similar to the methodology used in the heart disease datasetl}}{2}{figure.1}\protected@file@percent }
\@writefile{lot}{\contentsline {table}{\numberline {1}{\ignorespaces Separation of the initial dataset based on the type of laboratory testing}}{3}{table.1}\protected@file@percent }
\@writefile{lof}{\contentsline {figure}{\numberline {2}{\ignorespaces This figure displays the data sparcity of the dataset examined in this project}}{3}{figure.2}\protected@file@percent }
\@writefile{lof}{\contentsline {figure}{\numberline {3}{\ignorespaces The ROC curve of the KNN algorithm on the red/white blood tests dataset.}}{4}{figure.3}\protected@file@percent }
\@writefile{lof}{\contentsline {figure}{\numberline {4}{\ignorespaces Permutation importance results for the red/white cells blood tests using KNN.}}{4}{figure.4}\protected@file@percent }
\@writefile{lof}{\contentsline {figure}{\numberline {5}{\ignorespaces The ROC curve of the logistic regression and random forest algorithms on the red/white blood tests dataset.}}{5}{figure.5}\protected@file@percent }
\@writefile{lof}{\contentsline {figure}{\numberline {6}{\ignorespaces Permutation importance results for the red/white cells blood tests using logistic regression and random forest.}}{5}{figure.6}\protected@file@percent }
\@writefile{lof}{\contentsline {figure}{\numberline {7}{\ignorespaces Partial Dependence Plots for the red/white cells blood tests on the features leukocytes and Eosinophils.}}{6}{figure.7}\protected@file@percent }
\@writefile{lof}{\contentsline {figure}{\numberline {8}{\ignorespaces Shap values for the red/white cells blood tests dataset on the 3 algorithms .}}{6}{figure.8}\protected@file@percent }
\@writefile{lof}{\contentsline {figure}{\numberline {9}{\ignorespaces Roc curves for the 2nd dataset (Respiratory viruses and bacteria tests) for the 3 algorithms used.}}{7}{figure.9}\protected@file@percent }
\@writefile{lof}{\contentsline {figure}{\numberline {10}{\ignorespaces Permutation importance results for the Respiratory viruses and bacteria tests using all the algorithms.}}{7}{figure.10}\protected@file@percent }
\@writefile{lof}{\contentsline {figure}{\numberline {11}{\ignorespaces Shap values for the respiratory viruses and bacteria tests.}}{7}{figure.11}\protected@file@percent }
\@writefile{toc}{\contentsline {section}{\numberline {4}Discussion}{8}{section.4}\protected@file@percent }
